{
    "v": "5d7101f642e6ad002e5f30d9",
    "n": "Sep 05 V1, v3",
    "s": "https://ari-1-deploy.socialcyber.io/",
    "wl": [
        "www.bankhapoalim.co.il",
        "login.bankhapoalim.co.il",
        "www.bitpay.co.il",
        "www.bcodes.co.il",
        "94.245.109.222",
        "static2.bankhapoalim.co.il",
        "jsaccess.poalim-site.co.il",
        "sdc.bankhapoalim.co.il",
        "online.citi.com",
        "steps.citi.com",
        "metrics1.citi.com",
        "prod.report.nacustomerexperience.citi.com",
        "prod.report.nacustomerexperience.citi.com",
        "connect.socialcyber.io",
        "events.socialcyber.io",
        "ari-1-deploy.socialcyber.io",
        "isra-poc.socialcyber.io"
    ],
    "m": 2,
    "d": {
        "0": {
            "b": 0,
            "d": {
                "542491509": {
                    "b": 0,
                    "d": {
                        "1504": {
                            "b": 0,
                            "r": [
                                4,
                                3
                            ],
                            "d": {
                                "id": {
                                    "b": 0,
                                    "i": 0
                                },
                                "visa": {
                                    "b": 1,
                                    "i": 1
                                }
                            },
                            "i": 0
                        }
                    },
                    "i": 2
                },
                "945351508": {
                    "b": 0,
                    "d": {
                        "581079633": {
                            "b": 0,
                            "d": {
                                "buildnumber": {
                                    "b": 0,
                                    "i": 0
                                },
                                "app_id": {
                                    "b": 0,
                                    "i": 1
                                }
                            },
                            "i": 0
                        }
                    },
                    "i": 3
                },
                "1104421027": {
                    "b": 0,
                    "d": {
                        "1554": {
                            "b": 0,
                            "d": {
                                "1_OBJ.2_OBJ.1_OBJ[0].3_NUM": {
                                    "b": 1,
                                    "i": 0
                                },
                                "1_OBJ.6_NUM": {
                                    "b": 0,
                                    "i": 1
                                },
                                "1_OBJ.2_OBJ.1_OBJ[5].1_STR": {
                                    "b": 0,
                                    "i": 2
                                },
                                "1_OBJ.2_OBJ.1_OBJ[10].2_STR": {
                                    "b": 0,
                                    "i": 3
                                },
                                "1_OBJ.21_STR": {
                                    "b": 0,
                                    "i": 4
                                },
                                "1_OBJ.12_NUM": {
                                    "b": 0,
                                    "i": 5
                                },
                                "1_OBJ.35_NUM": {
                                    "b": 0,
                                    "i": 6
                                },
                                "1_OBJ.3_OBJ[5].2_STR": {
                                    "b": 0,
                                    "i": 7
                                },
                                "1_OBJ.14_STR": {
                                    "b": 0,
                                    "i": 8
                                },
                                "1_OBJ.3_OBJ[0].2_STR": {
                                    "b": 0,
                                    "i": 9
                                },
                                "1_OBJ.3_OBJ[2].1_NUM": {
                                    "b": 0,
                                    "i": 10
                                },
                                "1_OBJ.2_OBJ.1_OBJ[0].1_STR": {
                                    "b": 0,
                                    "i": 11
                                },
                                "1_OBJ.3_OBJ[3].4_NUM": {
                                    "b": 0,
                                    "i": 12
                                },
                                "1_OBJ.2_OBJ.1_OBJ[8].1_STR": {
                                    "b": 0,
                                    "i": 13
                                },
                                "1_OBJ.13_STR": {
                                    "b": 0,
                                    "i": 14
                                },
                                "1_OBJ.5_NUM": {
                                    "b": 0,
                                    "i": 15
                                },
                                "1_OBJ.2_OBJ.3_NUM": {
                                    "b": 0,
                                    "i": 16
                                },
                                "1_OBJ.2_OBJ.1_OBJ[8].2_STR": {
                                    "b": 0,
                                    "i": 17
                                },
                                "1_OBJ.3_OBJ[1].2_STR": {
                                    "b": 0,
                                    "i": 18
                                },
                                "1_OBJ.2_OBJ.1_OBJ[3].1_STR": {
                                    "b": 0,
                                    "i": 19
                                },
                                "1_OBJ.26_NUM": {
                                    "b": 0,
                                    "i": 20
                                },
                                "1_OBJ.2_OBJ.1_OBJ[12].3_NUM": {
                                    "b": 0,
                                    "i": 21
                                },
                                "1_OBJ.2_OBJ.1_OBJ[3].2_STR": {
                                    "b": 0,
                                    "i": 22
                                },
                                "1_OBJ.3_OBJ[3].1_NUM": {
                                    "b": 0,
                                    "i": 23
                                },
                                "1_OBJ.3_OBJ[4].4_NUM": {
                                    "b": 0,
                                    "i": 24
                                },
                                "1_OBJ.4_NUM": {
                                    "b": 0,
                                    "i": 25
                                },
                                "1_OBJ.2_OBJ.1_OBJ[13].1_STR": {
                                    "b": 0,
                                    "i": 26
                                },
                                "1_OBJ.32_NUM": {
                                    "b": 0,
                                    "i": 27
                                },
                                "1_OBJ.2_OBJ.1_OBJ[6].1_STR": {
                                    "b": 0,
                                    "i": 28
                                },
                                "1_OBJ.18_NUM": {
                                    "b": 0,
                                    "i": 29
                                },
                                "1_OBJ.11_OBJ.12_F32": {
                                    "b": 0,
                                    "i": 30
                                },
                                "1_OBJ.2_OBJ.1_OBJ[12].1_STR": {
                                    "b": 0,
                                    "i": 31
                                },
                                "1_OBJ.2_OBJ.1_OBJ[6].2_STR": {
                                    "b": 1,
                                    "i": 32
                                },
                                "1_OBJ.3_OBJ[2].2_STR": {
                                    "b": 0,
                                    "i": 33
                                },
                                "1_OBJ.10_STR": {
                                    "b": 0,
                                    "i": 34
                                },
                                "1_OBJ.19_STR": {
                                    "b": 0,
                                    "i": 35
                                },
                                "1_OBJ.31_NUM": {
                                    "b": 0,
                                    "i": 36
                                },
                                "1_OBJ.2_OBJ.1_OBJ[11].1_STR": {
                                    "b": 0,
                                    "i": 37
                                },
                                "1_OBJ.2_OBJ.1_OBJ[1].1_STR": {
                                    "b": 0,
                                    "i": 38
                                },
                                "1_OBJ.17_NUM": {
                                    "b": 0,
                                    "i": 39
                                },
                                "1_OBJ.3_OBJ[5].4_NUM": {
                                    "b": 0,
                                    "i": 40
                                },
                                "1_OBJ.2_OBJ.1_OBJ[9].1_STR": {
                                    "b": 0,
                                    "i": 41
                                },
                                "1_OBJ.3_OBJ[4].1_NUM": {
                                    "b": 0,
                                    "i": 42
                                },
                                "1_OBJ.2_OBJ.1_OBJ[1].2_STR": {
                                    "b": 1,
                                    "i": 43
                                },
                                "1_OBJ.16_OBJ.6_STR": {
                                    "b": 0,
                                    "i": 44
                                },
                                "1_OBJ.2_OBJ.1_OBJ[10].1_STR": {
                                    "b": 0,
                                    "i": 45
                                },
                                "1_OBJ.2_OBJ.1_OBJ[9].2_STR": {
                                    "b": 1,
                                    "i": 46
                                },
                                "1_OBJ.3_OBJ[0].4_NUM": {
                                    "b": 0,
                                    "i": 47
                                },
                                "1_OBJ.25_STR": {
                                    "b": 0,
                                    "i": 48
                                },
                                "1_OBJ.23_NUM": {
                                    "b": 0,
                                    "i": 49
                                },
                                "1_OBJ.2_OBJ.1_OBJ[4].1_STR": {
                                    "b": 0,
                                    "i": 50
                                },
                                "1_OBJ.3_OBJ[3].2_STR": {
                                    "b": 0,
                                    "i": 51
                                },
                                "1_OBJ.2_OBJ.1_OBJ[4].2_STR": {
                                    "b": 0,
                                    "i": 52
                                },
                                "1_OBJ.3_OBJ[1].4_NUM": {
                                    "b": 0,
                                    "i": 53
                                },
                                "1_OBJ.3_OBJ[0].1_NUM": {
                                    "b": 0,
                                    "i": 54
                                },
                                "1_OBJ.3_OBJ[5].1_NUM": {
                                    "b": 0,
                                    "i": 55
                                },
                                "1_OBJ.2_OBJ.2_STR": {
                                    "b": 0,
                                    "i": 56
                                },
                                "1_OBJ.2_OBJ.1_OBJ[7].1_STR": {
                                    "b": 0,
                                    "i": 57
                                },
                                "1_OBJ.1_NUM": {
                                    "b": 0,
                                    "i": 58
                                },
                                "1_OBJ.30_STR": {
                                    "b": 0,
                                    "i": 59
                                },
                                "1_OBJ.9_STR": {
                                    "b": 0,
                                    "i": 60
                                },
                                "1_OBJ.2_OBJ.1_OBJ[13].2_STR": {
                                    "b": 0,
                                    "i": 61
                                },
                                "1_OBJ.3_OBJ[4].2_STR": {
                                    "b": 0,
                                    "i": 62
                                },
                                "1_OBJ.7_NUM": {
                                    "b": 0,
                                    "i": 63
                                },
                                "1_OBJ.2_OBJ.1_OBJ[7].2_STR": {
                                    "b": 0,
                                    "i": 64
                                },
                                "1_OBJ.2_OBJ.1_OBJ[2].1_STR": {
                                    "b": 0,
                                    "i": 65
                                },
                                "1_OBJ.2_OBJ.1_OBJ[5].3_NUM": {
                                    "b": 0,
                                    "i": 66
                                },
                                "1_OBJ.3_OBJ[1].1_NUM": {
                                    "b": 0,
                                    "i": 67
                                },
                                "1_OBJ.3_OBJ[2].4_NUM": {
                                    "b": 0,
                                    "i": 68
                                },
                                "1_OBJ.2_OBJ.4_NUM": {
                                    "b": 0,
                                    "i": 69
                                },
                                "1_OBJ.2_OBJ.1_OBJ[2].2_STR": {
                                    "b": 0,
                                    "i": 70
                                },
                                "1_OBJ.20_NUM": {
                                    "b": 0,
                                    "i": 71
                                },
                                "1_OBJ.2_OBJ.1_OBJ[11].2_STR": {
                                    "b": 0,
                                    "i": 72
                                },
                                "1_OBJ.8_STR": {
                                    "b": 0,
                                    "i": 73
                                },
                                "1_OBJ.2_OBJ[0].1_OBJ[3].1_STR": {
                                    "b": 0,
                                    "i": 74
                                },
                                "1_OBJ.2_OBJ[0].1_OBJ[4].3_NUM": {
                                    "b": 0,
                                    "i": 75
                                },
                                "1_OBJ.2_OBJ[1].1_OBJ[2].3_NUM": {
                                    "b": 0,
                                    "i": 76
                                },
                                "1_OBJ.2_OBJ[1].1_OBJ[1].1_STR": {
                                    "b": 0,
                                    "i": 77
                                },
                                "1_OBJ.2_OBJ[0].1_OBJ[1].3_NUM": {
                                    "b": 0,
                                    "i": 78
                                },
                                "1_OBJ.2_OBJ[0].1_OBJ[0].1_STR": {
                                    "b": 0,
                                    "i": 79
                                },
                                "1_OBJ.2_OBJ[0].2_STR": {
                                    "b": 0,
                                    "i": 80
                                },
                                "1_OBJ.2_OBJ[0].1_OBJ[4].1_STR": {
                                    "b": 0,
                                    "i": 81
                                },
                                "1_OBJ.2_OBJ[1].1_OBJ[3].3_NUM": {
                                    "b": 0,
                                    "i": 82
                                },
                                "1_OBJ.2_OBJ[1].1_OBJ[2].1_STR": {
                                    "b": 0,
                                    "i": 83
                                },
                                "1_OBJ.2_OBJ[1].2_STR": {
                                    "b": 0,
                                    "i": 84
                                },
                                "1_OBJ.2_OBJ[0].3_NUM": {
                                    "b": 0,
                                    "i": 85
                                },
                                "1_OBJ.2_OBJ[0].1_OBJ[1].1_STR": {
                                    "b": 0,
                                    "i": 86
                                },
                                "1_OBJ.2_OBJ[1].1_OBJ[0].3_NUM": {
                                    "b": 0,
                                    "i": 87
                                },
                                "1_OBJ.2_OBJ[0].1_OBJ[5].2_STR": {
                                    "b": 0,
                                    "i": 88
                                },
                                "1_OBJ.2_OBJ[0].1_OBJ[5].1_STR": {
                                    "b": 0,
                                    "i": 89
                                },
                                "1_OBJ.2_OBJ[1].1_OBJ[3].1_STR": {
                                    "b": 0,
                                    "i": 90
                                },
                                "1_OBJ.2_OBJ[0].1_OBJ[2].2_STR": {
                                    "b": 0,
                                    "i": 91
                                },
                                "1_OBJ.2_OBJ[1].3_NUM": {
                                    "b": 0,
                                    "i": 92
                                },
                                "1_OBJ.2_OBJ[0].4_NUM": {
                                    "b": 0,
                                    "i": 93
                                },
                                "1_OBJ.2_OBJ[0].1_OBJ[2].1_STR": {
                                    "b": 0,
                                    "i": 94
                                },
                                "1_OBJ.2_OBJ[0].1_OBJ[3].3_NUM": {
                                    "b": 0,
                                    "i": 95
                                },
                                "1_OBJ.2_OBJ[1].1_OBJ[0].1_STR": {
                                    "b": 0,
                                    "i": 96
                                },
                                "1_OBJ.2_OBJ[1].1_OBJ[4].2_STR": {
                                    "b": 0,
                                    "i": 97
                                },
                                "1_OBJ.2_OBJ[0].1_OBJ[0].3_NUM": {
                                    "b": 0,
                                    "i": 98
                                },
                                "1_OBJ.2_OBJ[1].1_OBJ[4].1_STR": {
                                    "b": 0,
                                    "i": 99
                                },
                                "1_OBJ.2_OBJ[1].4_NUM": {
                                    "b": 0,
                                    "i": 100
                                },
                                "1_OBJ.2_OBJ[1].1_OBJ[1].2_STR": {
                                    "b": 0,
                                    "i": 101
                                },
                                "1_OBJ.2_OBJ[2].1_OBJ[3].3_NUM": {
                                    "b": 0,
                                    "i": 102
                                },
                                "1_OBJ.2_OBJ[1].1_OBJ[2].2_STR": {
                                    "b": 0,
                                    "i": 103
                                },
                                "1_OBJ.2_OBJ[2].1_OBJ[6].3_NUM": {
                                    "b": 0,
                                    "i": 104
                                },
                                "1_OBJ.2_OBJ[1].1_OBJ[5].2_STR": {
                                    "b": 0,
                                    "i": 105
                                },
                                "1_OBJ.2_OBJ[2].1_OBJ[1].1_STR": {
                                    "b": 0,
                                    "i": 106
                                },
                                "1_OBJ.2_OBJ[2].1_OBJ[0].1_STR": {
                                    "b": 0,
                                    "i": 107
                                },
                                "1_OBJ.2_OBJ[2].1_OBJ[2].1_STR": {
                                    "b": 0,
                                    "i": 108
                                },
                                "1_OBJ.2_OBJ[2].1_OBJ[3].1_STR": {
                                    "b": 0,
                                    "i": 109
                                },
                                "1_OBJ.2_OBJ[2].1_OBJ[5].1_STR": {
                                    "b": 0,
                                    "i": 110
                                },
                                "1_OBJ.2_OBJ[2].1_OBJ[0].2_STR": {
                                    "b": 0,
                                    "i": 111
                                },
                                "1_OBJ.2_OBJ[2].1_OBJ[6].1_STR": {
                                    "b": 0,
                                    "i": 112
                                },
                                "1_OBJ.2_OBJ[2].4_NUM": {
                                    "b": 0,
                                    "i": 113
                                },
                                "1_OBJ.2_OBJ[2].1_OBJ[4].1_STR": {
                                    "b": 0,
                                    "i": 114
                                },
                                "1_OBJ.2_OBJ[1].1_OBJ[1].3_NUM": {
                                    "b": 0,
                                    "i": 115
                                },
                                "1_OBJ.2_OBJ[2].2_STR": {
                                    "b": 0,
                                    "i": 116
                                },
                                "1_OBJ.2_OBJ[1].1_OBJ[6].3_NUM": {
                                    "b": 0,
                                    "i": 117
                                },
                                "1_OBJ.2_OBJ[1].1_OBJ[4].3_NUM": {
                                    "b": 0,
                                    "i": 118
                                },
                                "1_OBJ.2_OBJ[2].1_OBJ[2].2_STR": {
                                    "b": 0,
                                    "i": 119
                                },
                                "1_OBJ.2_OBJ[2].1_OBJ[5].2_STR": {
                                    "b": 0,
                                    "i": 120
                                },
                                "1_OBJ.2_OBJ[2].3_NUM": {
                                    "b": 0,
                                    "i": 121
                                },
                                "1_OBJ.2_OBJ[2].1_OBJ[1].3_NUM": {
                                    "b": 0,
                                    "i": 122
                                },
                                "1_OBJ.2_OBJ[1].1_OBJ[5].1_STR": {
                                    "b": 0,
                                    "i": 123
                                },
                                "1_OBJ.2_OBJ[1].1_OBJ[0].2_STR": {
                                    "b": 0,
                                    "i": 124
                                },
                                "1_OBJ.2_OBJ[2].1_OBJ[4].3_NUM": {
                                    "b": 0,
                                    "i": 125
                                },
                                "1_OBJ.2_OBJ[1].1_OBJ[6].1_STR": {
                                    "b": 0,
                                    "i": 126
                                }
                            },
                            "i": 0
                        }
                    },
                    "i": 0
                },
                "1384164089": {
                    "b": 0,
                    "d": {
                        "134226261": {
                            "b": 0,
                            "d": {
                                "custom_events[0].Param5": {
                                    "b": 0,
                                    "i": 0
                                },
                                "extinfo[7]": {
                                    "b": 0,
                                    "i": 1
                                },
                                "custom_events[0]._logTime": {
                                    "b": 0,
                                    "i": 2
                                },
                                "extinfo[14]": {
                                    "b": 0,
                                    "i": 3
                                },
                                "advertiser_id": {
                                    "b": 0,
                                    "i": 4
                                },
                                "anon_id": {
                                    "b": 0,
                                    "i": 5
                                },
                                "extinfo[3]": {
                                    "b": 0,
                                    "i": 6
                                },
                                "custom_events[0].Param3": {
                                    "b": 0,
                                    "i": 7
                                },
                                "sdk": {
                                    "b": 0,
                                    "i": 8
                                },
                                "extinfo[8]": {
                                    "b": 0,
                                    "i": 9
                                },
                                "custom_events[0]._ui": {
                                    "b": 0,
                                    "i": 10
                                },
                                "application_tracking_enabled": {
                                    "b": 0,
                                    "i": 11
                                },
                                "custom_events[0]._valueToSum": {
                                    "b": 0,
                                    "i": 12
                                },
                                "extinfo[13]": {
                                    "b": 0,
                                    "i": 13
                                },
                                "custom_events[0].Param1": {
                                    "b": 0,
                                    "i": 14
                                },
                                "extinfo[4]": {
                                    "b": 0,
                                    "i": 15
                                },
                                "custom_events[0].Param6": {
                                    "b": 0,
                                    "i": 16
                                },
                                "custom_events[0]._eventName": {
                                    "b": 0,
                                    "i": 17
                                },
                                "extinfo[9]": {
                                    "b": 0,
                                    "i": 18
                                },
                                "include_headers": {
                                    "b": 0,
                                    "i": 19
                                },
                                "extinfo[12]": {
                                    "b": 0,
                                    "i": 20
                                },
                                "extinfo[0]": {
                                    "b": 0,
                                    "i": 21
                                },
                                "custom_events[0].Param4": {
                                    "b": 3,
                                    "i": 22
                                },
                                "extinfo[5]": {
                                    "b": 0,
                                    "i": 23
                                },
                                "format": {
                                    "b": 0,
                                    "i": 24
                                },
                                "extinfo[11]": {
                                    "b": 0,
                                    "i": 25
                                },
                                "url_schemes[0]": {
                                    "b": 0,
                                    "i": 26
                                },
                                "custom_events[0].Param2": {
                                    "b": 2,
                                    "i": 27
                                },
                                "extinfo[1]": {
                                    "b": 0,
                                    "i": 28
                                },
                                "event": {
                                    "b": 0,
                                    "i": 29
                                },
                                "extinfo[6]": {
                                    "b": 0,
                                    "i": 30
                                },
                                "extinfo[10]": {
                                    "b": 0,
                                    "i": 31
                                },
                                "extinfo[15]": {
                                    "b": 0,
                                    "i": 32
                                },
                                "advertiser_tracking_enabled": {
                                    "b": 0,
                                    "i": 33
                                },
                                "extinfo[2]": {
                                    "b": 0,
                                    "i": 34
                                }
                            },
                            "i": 0
                        }
                    },
                    "i": 1
                },
                "2055489337": {
                    "b": 0,
                    "d": {
                        "581079633": {
                            "b": 0,
                            "d": {
                                "buildnumber": {
                                    "b": 0,
                                    "i": 0
                                },
                                "app_id": {
                                    "b": 0,
                                    "i": 1
                                }
                            },
                            "i": 0
                        }
                    },
                    "i": 4
                }
            }
        }
    }
}
